cnvi0007305 =>(hhall.hg18.pfb) cnvi0007305	14	103811924	2 
cnvi0059233 =>(hhall.hg18.pfb) cnvi0059233	7	142176364	2 
rs1006092 =>(HumanOmni1-QuadV1) rs1006092	7	141976021	0.938 
rs8182318 =>(hhall.hg18.pfb) rs8182318	17	59818301	2 
rs7880358 =>(hhall.hg18.pfb) rs7880358	X	148715329	0 
rs17766702 =>(hhall.hg18.pfb) rs17766702	7	141979036	0.62 
rs7796486 =>(hhall.hg18.pfb) rs7796486	7	142172768	2 
rs2855945 =>(hhall.hg18.pfb) rs2855945	7	141921269	0.88 
cnv10949p384 =>(hhall.hg18.pfb) cnv10949p384	7	115877	0 
cnvi0059226 =>(hhall.hg18.pfb) cnvi0059226	7	142175236	2 
cnvi0107810 =>(hhall.hg18.pfb) cnvi0107810	7	142201367	2 
rs6961616 =>(HumanOmni1-QuadV1) rs6961616	7	141911395	0.954 
rs10250922 =>(HumanOmni1-QuadV1) rs10250922	7	141722089	0.130 
cnvi0107806 =>(hhall.hg18.pfb) cnvi0107806	7	142196298	2 
rs2734210 =>(HumanOmni1-QuadV1) rs2734210	7	141905523	0.995 
rs928916 =>(HumanOmni1-QuadV1) rs928916	7	141954283	0.529 
rs8074422 =>(hhall.hg18.pfb) rs8074422	17	59793159	0.984 
rs2070782 =>(hhall.hg18.pfb) rs2070782	17	59785865	0.604 
rs7405659 =>(hhall.hg18.pfb) rs7405659	17	59874129	0.382113821138211 
rs35087687 =>(HumanOmni1-QuadV1) rs35087687	7	141955757	0.007 
cnvi0007304 =>(hhall.hg18.pfb) cnvi0007304	14	103811626	2 
cnvi0157255 =>(HumanOmni1-QuadV1) cnvi0157255	7	141950201	2 
cnvi0150451 =>(HumanOmni1-QuadV1) cnvi0150451	13	113758101	2 
rs11535222 =>(hhall.hg18.pfb) rs11535222	7	141920993	0.169354838709677 
cnvi0055842 =>(hhall.hg18.pfb) cnvi0055842	4	1496298	2 
cnvi0059224 =>(hhall.hg18.pfb) cnvi0059224	7	142174989	2 
cnvi0135114 =>(HumanOmni1-QuadV1) cnvi0135114	17	78653873	2 
rs2855858 =>(hhall.hg18.pfb) rs2855858	7	141704794	2 
cnvi0107809 =>(hhall.hg18.pfb) cnvi0107809	7	142200795	2 
rs17290 =>(hhall.hg18.pfb) rs17290	7	141990726	2 
rs1016440 =>(hhall.hg18.pfb) rs1016440	7	141932221	0.032 
cnvi0066717 =>(hhall.hg18.pfb) cnvi0066717	8	144823070	2 
rs7216012 =>(hhall.hg18.pfb) rs7216012	17	59791167	0.804 
cnvi0066726 =>(hhall.hg18.pfb) cnvi0066726	8	144823639	2 
rs17163730 =>(hhall.hg18.pfb) rs17163730	7	142202688	2 
rs2040351 =>(hhall.hg18.pfb) rs2040351	7	141995174	0.824 
rs4968620 =>(HumanOmni1-QuadV1) rs4968620	17	59766334	0.736 
rs12667623 =>(hhall.hg18.pfb) rs12667623	7	141989854	0.623853211009174 
rs2734195 =>(HumanOmni1-QuadV1) rs2734195	7	141933880	0.902 
rs9899114 =>(hhall.hg18.pfb) rs9899114	17	59844681	0.919491525423729 
rs2367487 =>(hhall.hg18.pfb) rs2367487	7	142196830	0.576612903225806 
rs12671448 =>(hhall.hg18.pfb) rs12671448	7	142198638	2 
rs12051829 =>(hhall.hg18.pfb) rs12051829	17	59831092	0.644 
rs2855150 =>(hhall.hg18.pfb) rs2855150	7	141946146	0.668 
cnvi0059223 =>(hhall.hg18.pfb) cnvi0059223	7	142174914	2 
rs10487532 =>(hhall.hg18.pfb) rs10487532	7	141969186	0.032 
rs10257236 =>(hhall.hg18.pfb) rs10257236	7	142167666	2 
rs7210806 =>(hhall.hg18.pfb) rs7210806	17	59843219	0.6 
cnvi0125357 =>(HumanOmni1-QuadV1) cnvi0125357	17	78653211	2 
rs762690 =>(hhall.hg18.pfb) rs762690	7	142195641	2 
rs17229 =>(hhall.hg18.pfb) rs17229	7	141969773	0.592 
rs7503902 =>(hhall.hg18.pfb) rs7503902	17	59833749	0.308 
cnv10949p206 =>(hhall.hg18.pfb) cnv10949p206	7	75657	0 
rs34494435 =>(hhall.hg18.pfb) rs34494435	7	141987291	2 
rs16622 =>(hhall.hg18.pfb) rs16622	7	141932985	0.161157024793388 
rs6944854 =>(HumanOmni1-QuadV1) rs6944854	7	141905655	0.301 
cnvi0055837 =>(hhall.hg18.pfb) cnvi0055837	4	1495927	2 
rs35139902 =>(HumanOmni1-QuadV1) rs35139902	17	59787488	0.963 
rs28360708 =>(HumanOmni1-QuadV1) rs28360708	7	141908208	0.041 
cnv3896p4 =>(hhall.hg18.pfb) cnv3896p4	14	103811924	0 
rs7777036 =>(HumanOmni1-QuadV1) rs7777036	7	141980347	0.175 
cnvi0123672 =>(HumanOmni1-QuadV1) cnvi0123672	17	78654041	2 
cnvi0088895 =>(hhall.hg18.pfb) cnvi0088895	4	1491760	2 
cnv3896p2 =>(hhall.hg18.pfb) cnv3896p2	14	103811626	0 
rs2015658 =>(HumanOmni1-QuadV1) rs2015658	7	141722145	0.912 
cnv10949PP29 =>(hhall.hg18.pfb) cnv10949PP29	7	37124	0 
rs28664981 =>(HumanOmni1-QuadV1) rs28664981	7	141907081	0.781 
cnvi0022880 =>(hhall.hg18.pfb) cnvi0022880	17	33337341	2 
cnvi0066724 =>(hhall.hg18.pfb) cnvi0066724	8	144823534	2 
rs2855951 =>(hhall.hg18.pfb) rs2855951	7	141942766	0.032 
cnvi0059231 =>(hhall.hg18.pfb) cnvi0059231	7	142176043	2 
cnv3896p1 =>(hhall.hg18.pfb) cnv3896p1	14	103811516	0 
cnvi0160348 =>(HumanOmni1-QuadV1) cnvi0160348	4	59480551	2 
rs8067406 =>(hhall.hg18.pfb) rs8067406	17	59811778	2 
SNP2-21059419 =>(HumanOmni1-QuadV1) SNP2-21059419	2	21059419	0.230 
rs12534123 =>(hhall.hg18.pfb) rs12534123	7	141970792	0.132 
rs2854862 =>(hhall.hg18.pfb) rs2854862	6	32072370	2 
rs12411289 =>(hhall.hg18.pfb) rs12411289	10	81415378	0 
cnvi0065349 =>(hhall.hg18.pfb) cnvi0065349	7	142174047	2 
rs10215320 =>(hhall.hg18.pfb) rs10215320	7	141994918	0.176 
cnv10949p287 =>(hhall.hg18.pfb) cnv10949p287	7	97459	0 
cnvi0142949 =>(HumanOmni1-QuadV1) cnvi0142949	7	142172448	2 
cnvi0107807 =>(hhall.hg18.pfb) cnvi0107807	7	142197486	2 
rs3959187 =>(hhall.hg18.pfb) rs3959187	7	101972733	2 
rs361379 =>(hhall.hg18.pfb) rs361379	7	141720893	0.56 
rs4593446 =>(hhall.hg18.pfb) rs4593446	7	142175282	2 
rs2855952 =>(HumanOmni1-QuadV1) rs2855952	7	141944540	0.238 
cnv10949p97 =>(hhall.hg18.pfb) cnv10949p97	7	54695	0 
rs35562697 =>(hhall.hg18.pfb) rs35562697	17	59812050	2 
rs11975834 =>(hhall.hg18.pfb) rs11975834	7	141983271	2 
cnvi0059230 =>(hhall.hg18.pfb) cnvi0059230	7	142175915	2 
rs12671501 =>(HumanOmni1-QuadV1) rs12671501	7	141970239	0.005 
rs8080666 =>(hhall.hg18.pfb) rs8080666	17	59840612	0.608 
cnvi0056330 =>(hhall.hg18.pfb) cnvi0056330	7	114889	2 
rs8080232 =>(hhall.hg18.pfb) rs8080232	17	59771738	2 
rs45552934 =>(HumanOmni1-QuadV1) rs45552934	17	59783552	0.989 
rs6979080 =>(hhall.hg18.pfb) rs6979080	7	141974723	0.78 
cnvi0008164 =>(hhall.hg18.pfb) cnvi0008164	17	254541	2 
rs6961499 =>(hhall.hg18.pfb) rs6961499	7	142203529	2 
cnvi0055838 =>(hhall.hg18.pfb) cnvi0055838	4	1496029	2 
cnvi0151210 =>(HumanOmni1-QuadV1) cnvi0151210	2	239350651	2 
cnvi0130719 =>(HumanOmni1-QuadV1) cnvi0130719	17	78653376	2 
rs13310696 =>(hhall.hg18.pfb) rs13310696	7	141700726	2 
rs7208509 =>(hhall.hg18.pfb) rs7208509	17	59816639	2 
rs6947359 =>(hhall.hg18.pfb) rs6947359	7	141969085	0.824 
rs361342 =>(hhall.hg18.pfb) rs361342	7	141908739	0.96 
cnvi0155419 =>(HumanOmni1-QuadV1) cnvi0155419	7	142194951	2 
rs2471795 =>(hhall.hg18.pfb) rs2471795	7	141720146	2 
rs9894547 =>(hhall.hg18.pfb) rs9894547	17	59846978	0.692 
rs17163403 =>(hhall.hg18.pfb) rs17163403	7	141915074	0.972 
cnvi0125682 =>(HumanOmni1-QuadV1) cnvi0125682	8	12199352	2 
cnvi0115772 =>(hhall.hg18.pfb) cnvi0115772	17	59793159	2 
rs35621797 =>(hhall.hg18.pfb) rs35621797	17	59788636	2 
rs2855950 =>(hhall.hg18.pfb) rs2855950	7	141942584	0.792 
rs2734319 =>(hhall.hg18.pfb) rs2734319	6	32071839	2 
rs6979231 =>(HumanOmni1-QuadV1) rs6979231	7	141905809	0.300 
cnvi0127334 =>(HumanOmni1-QuadV1) cnvi0127334	17	78654209	2 
rs17257 =>(hhall.hg18.pfb) rs17257	7	141976845	0.804 
rs12533751 =>(hhall.hg18.pfb) rs12533751	7	141975201	0.532 
rs2855848 =>(hhall.hg18.pfb) rs2855848	7	141698495	2 
rs35415345 =>(hhall.hg18.pfb) rs35415345	17	59820812	2 
cnvi0159524 =>(HumanOmni1-QuadV1) cnvi0159524	2	111050601	2 
rs2367325 =>(HumanOmni1-QuadV1) rs2367325	7	141954955	0.983 
rs35951808 =>(hhall.hg18.pfb) rs35951808	7	142202259	2 
rs17710244 =>(hhall.hg18.pfb) rs17710244	7	141980701	0.92 
rs7391816 =>(hhall.hg18.pfb) rs7391816	X	148716854	1 
rs6974084 =>(hhall.hg18.pfb) rs6974084	7	141700820	2 
rs2213199 =>(hhall.hg18.pfb) rs2213199	7	141915881	0.732 
rs12450150 =>(HumanOmni1-QuadV1) rs12450150	17	59882891	0.004 
rs13223129 =>(hhall.hg18.pfb) rs13223129	7	141973788	0.132 
rs6956187 =>(HumanOmni1-QuadV1) rs6956187	7	142005399	0.879 
rs17163497 =>(hhall.hg18.pfb) rs17163497	7	141979574	0.056 
rs1041848 =>(hhall.hg18.pfb) rs1041848	7	141983977	2 
rs1131012 =>(hhall.hg18.pfb) rs1131012	17	59781521	0.396 
rs7789642 =>(hhall.hg18.pfb) rs7789642	7	142005626	0.868 
rs9889615 =>(hhall.hg18.pfb) rs9889615	17	59881764	0.064 
rs12113035 =>(hhall.hg18.pfb) rs12113035	7	141905345	0.305785123966942 
rs11650911 =>(HumanOmni1-QuadV1) rs11650911	17	59880798	0.713 
rs2156947 =>(HumanOmni1-QuadV1) rs2156947	7	141925721	0.901 
cnvi0048960 =>(hhall.hg18.pfb) cnvi0048960	8	86870660	2 
rs6968260 =>(hhall.hg18.pfb) rs6968260	7	141991604	0.9 
rs6972966 =>(hhall.hg18.pfb) rs6972966	7	142001754	0.624 
rs743622 =>(hhall.hg18.pfb) rs743622	7	141950541	0.508 
rs17767132 =>(hhall.hg18.pfb) rs17767132	7	141985170	0.168 
rs6504230 =>(hhall.hg18.pfb) rs6504230	17	59875585	0.592 
rs3114484 =>(hhall.hg18.pfb) rs3114484	7	142200133	2 
rs361474 =>(hhall.hg18.pfb) rs361474	7	141981739	0.172 
cnvi0107805 =>(hhall.hg18.pfb) cnvi0107805	7	142195067	2 
rs7503015 =>(hhall.hg18.pfb) rs7503015	17	59832112	0.916 
rs2252241 =>(hhall.hg18.pfb) rs2252241	7	141914844	0.792 
rs12939215 =>(hhall.hg18.pfb) rs12939215	17	59765986	0.336 
rs361377 =>(hhall.hg18.pfb) rs361377	7	141918095	0.764 
rs2855854 =>(hhall.hg18.pfb) rs2855854	7	141702432	2 
rs12953175 =>(hhall.hg18.pfb) rs12953175	17	59820164	2 
cnvi0066722 =>(hhall.hg18.pfb) cnvi0066722	8	144823425	2 
rs1574660 =>(hhall.hg18.pfb) rs1574660	7	141711704	2 
cnvi0076793 =>(hhall.hg18.pfb) cnvi0076793	17	33422999	2 
rs17663945 =>(hhall.hg18.pfb) rs17663945	4	69528107	1 
rs11079538 =>(hhall.hg18.pfb) rs11079538	17	59806027	0.416 
rs12936887 =>(HumanOmni1-QuadV1) rs12936887	17	59888960	0.692 
rs2004892 =>(hhall.hg18.pfb) rs2004892	7	141953728	0.528225806451613 
rs11973298 =>(hhall.hg18.pfb) rs11973298	7	142169018	2 
cnvi0059957 =>(hhall.hg18.pfb) cnvi0059957	8	930472	2 
rs9909725 =>(HumanOmni1-QuadV1) rs9909725	17	78653422	0.282 
cnv8618p7 =>(hhall.hg18.pfb) cnv8618p7	4	1496424	0 
rs11980401 =>(hhall.hg18.pfb) rs11980401	7	141993706	0.804 
rs13252685 =>(hhall.hg18.pfb) rs13252685	8	144823191	0 
rs2855954 =>(hhall.hg18.pfb) rs2855954	7	141947796	0.616 
rs6464504 =>(HumanOmni1-QuadV1) rs6464504	7	141967296	0.528 
cnvi0127138 =>(HumanOmni1-QuadV1) cnvi0127138	17	78653544	2 
cnv10949p247 =>(hhall.hg18.pfb) cnv10949p247	7	90134	0 
rs11978108 =>(hhall.hg18.pfb) rs11978108	7	141993894	2 
rs11079542 =>(hhall.hg18.pfb) rs11079542	17	59860558	0.383064516129032 
rs9907512 =>(hhall.hg18.pfb) rs9907512	17	59840015	0.864 
rs2855983 =>(hhall.hg18.pfb) rs2855983	7	142178383	0.609756097560976 
rs3935527 =>(hhall.hg18.pfb) rs3935527	1	142637363	2 
rs3757373 =>(HumanOmni1-QuadV1) rs3757373	7	142177538	0.009 
cnvi0158190 =>(HumanOmni1-QuadV1) cnvi0158190	8	144823551	2 
rs2269332 =>(hhall.hg18.pfb) rs2269332	7	141986363	0.388 
rs8065316 =>(hhall.hg18.pfb) rs8065316	17	59816347	0.308 
cnvi0056329 =>(hhall.hg18.pfb) cnvi0056329	7	114832	2 
cnvi0059225 =>(hhall.hg18.pfb) cnvi0059225	7	142175102	2 
rs2855149 =>(HumanOmni1-QuadV1) rs2855149	7	141942507	0.050 
SNP17-59884274 =>(HumanOmni1-QuadV1) SNP17-59884274	17	59884274	0.993 
rs997222 =>(hhall.hg18.pfb) rs997222	7	142194519	2 
cnvi0055844 =>(hhall.hg18.pfb) cnvi0055844	4	1496419	2 
rs4072032 =>(hhall.hg18.pfb) rs4072032	17	59805759	2 
rs9897769 =>(hhall.hg18.pfb) rs9897769	17	78653169	0.483739837398374 
rs2855860 =>(hhall.hg18.pfb) rs2855860	7	141705100	2 
rs361339 =>(HumanOmni1-QuadV1) rs361339	7	141908580	0.572 
rs7787291 =>(hhall.hg18.pfb) rs7787291	7	141982452	0.172 
rs12603312 =>(hhall.hg18.pfb) rs12603312	17	59883851	0.74 
rs12953 =>(hhall.hg18.pfb) rs12953	17	59787297	0.604 
cnvi0093272 =>(hhall.hg18.pfb) cnvi0093272	7	154835845	2 
rs7211869 =>(hhall.hg18.pfb) rs7211869	17	59783539	0.944 
rs12538846 =>(HumanOmni1-QuadV1) rs12538846	7	141907870	0.009 
rs12703485 =>(hhall.hg18.pfb) rs12703485	7	141996982	2 
rs9912957 =>(hhall.hg18.pfb) rs9912957	17	59815823	0.58 
rs8071835 =>(hhall.hg18.pfb) rs8071835	17	59875697	0.532 
rs2855943 =>(hhall.hg18.pfb) rs2855943	7	141918682	0.784552845528455 
rs12452459 =>(hhall.hg18.pfb) rs12452459	17	59823334	0 
rs17163396 =>(hhall.hg18.pfb) rs17163396	7	141904643	0.992 
rs6958683 =>(HumanOmni1-QuadV1) rs6958683	7	141905888	0.217 
rs17708955 =>(hhall.hg18.pfb) rs17708955	7	141941176	0.6 
rs2734151 =>(hhall.hg18.pfb) rs2734151	7	141942808	0.724 
rs9892298 =>(hhall.hg18.pfb) rs9892298	17	59813518	2 
rs17286 =>(hhall.hg18.pfb) rs17286	7	141987074	0.828 
rs4573171 =>(HumanOmni1-QuadV1) rs4573171	7	141956537	0.005 
cnvi0090389 =>(hhall.hg18.pfb) cnvi0090389	8	144819159	2 
SNP17-59875772 =>(HumanOmni1-QuadV1) SNP17-59875772	17	59875772	0.050 
rs11974480 =>(hhall.hg18.pfb) rs11974480	7	142170663	2 
rs7501783 =>(hhall.hg18.pfb) rs7501783	17	59869144	0.14 
rs8068521 =>(hhall.hg18.pfb) rs8068521	17	59799112	0.384 
rs12672113 =>(hhall.hg18.pfb) rs12672113	7	141956243	0.804 
cnv10949p185 =>(hhall.hg18.pfb) cnv10949p185	7	68180	0 
rs2734179 =>(HumanOmni1-QuadV1) rs2734179	7	141919688	0.208 
cnvi0059222 =>(hhall.hg18.pfb) cnvi0059222	7	142174808	2 
SNP17-59787297 =>(HumanOmni1-QuadV1) SNP17-59787297	17	59787297	0.621 
cnv4778p17 =>(hhall.hg18.pfb) cnv4778p17	17	254541	0 
cnvi0159146 =>(HumanOmni1-QuadV1) cnvi0159146	7	114801	2 
cnvi0000784 =>(hhall.hg18.pfb) cnvi0000784	7	75657	2 
rs2855949 =>(HumanCyto12.hg18.pfb) rs2855949	7	141938221	0.199 
rs4725604 =>(hhall.hg18.pfb) rs4725604	7	142197957	2 
rs6942518 =>(HumanOmni1-QuadV1) rs6942518	7	142005168	0.054 
rs2213198 =>(hhall.hg18.pfb) rs2213198	7	141915843	0.833333333333333 
rs7503550 =>(HumanCyto12.hg18.pfb) rs7503550	17	59800935	0.354 
cnvi0066723 =>(hhall.hg18.pfb) cnvi0066723	8	144823479	2 
rs13233002 =>(hhall.hg18.pfb) rs13233002	7	141916309	0.616 
cnvi0021214 =>(hhall.hg18.pfb) cnvi0021214	7	58538	2 
rs9910666 =>(hhall.hg18.pfb) rs9910666	17	59800714	0.06 
cnvi0011906 =>(hhall.hg18.pfb) cnvi0011906	4	1496424	2 
rs4968624 =>(hhall.hg18.pfb) rs4968624	17	59783283	0.652 
rs9906431 =>(hhall.hg18.pfb) rs9906431	17	59814883	0.384 
rs7212440 =>(hhall.hg18.pfb) rs7212440	17	59808196	0.928 
rs2855981 =>(hhall.hg18.pfb) rs2855981	7	142176424	2 
rs2855872 =>(hhall.hg18.pfb) rs2855872	7	141709991	2 
rs361473 =>(hhall.hg18.pfb) rs361473	7	141981664	0.656 
rs2734189 =>(hhall.hg18.pfb) rs2734189	7	141922620	0.312 
rs1006093 =>(hhall.hg18.pfb) rs1006093	7	141975939	0.468 
rs10231034 =>(hhall.hg18.pfb) rs10231034	7	141988537	0.196 
rs34912112 =>(hhall.hg18.pfb) rs34912112	7	141992936	2 
rs8069177 =>(hhall.hg18.pfb) rs8069177	17	59783168	0.168 
cnvi0107811 =>(hhall.hg18.pfb) cnvi0107811	7	142201875	2 
rs2014447 =>(HumanOmni1-QuadV1) rs2014447	7	142184215	0.588 
rs2855859 =>(hhall.hg18.pfb) rs2855859	7	141705024	2 
rs2854534 =>(HumanOmni1-QuadV1) rs2854534	7	141723642	0.494 
cnvi0123046 =>(HumanOmni1-QuadV1) cnvi0123046	17	78653712	2 
cnvi0107808 =>(hhall.hg18.pfb) cnvi0107808	7	142199294	2 
rs1006094 =>(hhall.hg18.pfb) rs1006094	7	141973993	0.22 
rs17282 =>(hhall.hg18.pfb) rs17282	7	141924465	0.688 
cnvi0056328 =>(hhall.hg18.pfb) cnvi0056328	7	114771	2 
rs2040350 =>(hhall.hg18.pfb) rs2040350	7	141994938	0.448 
rs8069746 =>(hhall.hg18.pfb) rs8069746	17	59778061	0.936 
cnvi0059221 =>(hhall.hg18.pfb) cnvi0059221	7	142174696	2 
rs8066263 =>(hhall.hg18.pfb) rs8066263	17	59811071	0.648 
rs2855977 =>(hhall.hg18.pfb) rs2855977	7	142175352	2 
rs7805097 =>(HumanOmni1-QuadV1) rs7805097	7	141904054	0.210 
rs4968723 =>(hhall.hg18.pfb) rs4968723	17	59770666	0.276 
rs7780065 =>(hhall.hg18.pfb) rs7780065	7	142004014	0.427966101694915 
cnvi0007303 =>(hhall.hg18.pfb) cnvi0007303	14	103811516	2 
rs4265107 =>(HumanOmni1-QuadV1) rs4265107	7	141952171	0.996 
